^F:\APEX\APEX\APEX\BULLET.CPP|F:\APEX\APEX\APEX\EMEMY.CPP|F:\APEX\APEX\APEX\MAIN.CPP|F:\APEX\APEX\APEX\PLANET.CPP|F:\APEX\APEX\APEX\PLAYER.CPP|F:\APEX\APEX\APEX\STAR.CPP|F:\APEX\APEX\APEX\STAR2.CPP
F:\APEX\APEX\APEX\DEBUG\VC141.PDB
F:\APEX\APEX\APEX\DEBUG\VC141.IDB
F:\APEX\APEX\APEX\DEBUG\STAR2.OBJ
F:\APEX\APEX\APEX\DEBUG\STAR.OBJ
F:\APEX\APEX\APEX\DEBUG\PLAYER.OBJ
F:\APEX\APEX\APEX\DEBUG\PLANET.OBJ
F:\APEX\APEX\APEX\DEBUG\MAIN.OBJ
F:\APEX\APEX\APEX\DEBUG\EMEMY.OBJ
F:\APEX\APEX\APEX\DEBUG\BULLET.OBJ
^F:\APEX\APEX\APEX\BULLET.CPP
F:\APEX\APEX\APEX\DEBUG\VC141.PDB
^F:\APEX\APEX\APEX\EMEMY.CPP
F:\APEX\APEX\APEX\DEBUG\VC141.PDB
^F:\APEX\APEX\APEX\PLANET.CPP
F:\APEX\APEX\APEX\DEBUG\VC141.PDB
^F:\APEX\APEX\APEX\PLAYER.CPP
F:\APEX\APEX\APEX\DEBUG\VC141.PDB
^F:\APEX\APEX\APEX\STAR.CPP
F:\APEX\APEX\APEX\DEBUG\VC141.PDB
^F:\APEX\APEX\APEX\STAR2.CPP
F:\APEX\APEX\APEX\DEBUG\VC141.PDB
^F:\APEX\APEX\APEX\MAIN.CPP
F:\APEX\APEX\APEX\DEBUG\VC141.PDB
F:\APEX\APEX\APEX\DEBUG\VC141.IDB
F:\APEX\APEX\APEX\DEBUG\MAIN.OBJ
